{
  "$schema": "https://frontmatter.codes/frontmatter.schema.json",
  "frontMatter.framework.id": "hugo",
  "frontMatter.content.publicFolder": "static",
  "frontMatter.preview.host": "http://localhost:1313",
  "frontMatter.content.pageFolders": [
    {
      "path": "[[workspace]]/content/posts",
      "title": "posts"
    },
    {
      "path": "[[workspace]]/content/projects",
      "title": "projects"
    }
  ],
  "frontMatter.content.autoUpdateDate": true,
  "frontMatter.content.fmHighlight": true,
  "frontMatter.dashboard.openOnStart": false,
  "frontMatter.framework.startCommand": "hugo server -D",
  "frontMatter.taxonomy.contentTypes": [
    {
      "name": "default",
      "pageBundle": true,
      "fields": [
        {
          "title": "Title",
          "name": "title",
          "type": "string"
        },
        {
          "title": "Description",
          "name": "description",
          "type": "string"
        },
        {
          "title": "Publishing date",
          "name": "date",
          "type": "datetime",
          "default": "{{now}}",
          "isPublishDate": true
        },
        {
          "title": "Content preview",
          "name": "preview",
          "type": "image"
        },
        {
          "title": "Is in draft",
          "name": "draft",
          "type": "boolean"
        },
        {
          "title": "Tags",
          "name": "tags",
          "type": "tags"
        },
        {
          "title": "Categories",
          "name": "categories",
          "type": "categories"
        },
        {
          "title": "lastmod",
          "name": "lastmod",
          "type": "datetime"
        }
      ]
    }
  ],
  "frontMatter.taxonomy.tags": [],
  "frontMatter.taxonomy.categories": [],
  "frontMatter.content.snippets": {
    "Book summary footer": {
      "description": "",
      "body": [
        "## Your Turn",
        "I hope you enjoyed my book summary and outline of Lead the Field. If you want to be notified when I've created a new book summary, [join our email list](https://mailsrv.getclipdish.com/subscription?f=EeZoV6892LXhcY892763exC763cYdoDgoAf0bUVbz1mDs4XmCTDHGoP7l8EIVsHzShlA8FUG).",
        "",
        "## More Book Summaries",
        "You can find more of my book outlines & summaries by [visiting this page.](/tags/books/)"
      ],
      "fields": []
    }
  }
}