{
  "name": "Joseph J Cotellese III",
  "thumbnail": "",
  "email": "joe@cotellese.net",
  "gender": "male",
  "nationality": "American",
  "social": {
    "github": "https://github.com/JoeCotellese",
    "twitter": "https://twitter.com/JoeCotellese",
    "instagram": "https://instagram.com/JoeCotellese",
    "linkedin": "https://linkedin.com/in/JoeCotellese"
  }
}